<?xml version="1.0" encoding="UTF-8" standalone="no"?>
<svg
   xmlns:dc="http://purl.org/dc/elements/1.1/"
   xmlns:cc="http://creativecommons.org/ns#"
   xmlns:rdf="http://www.w3.org/1999/02/22-rdf-syntax-ns#"
   xmlns:svg="http://www.w3.org/2000/svg"
   xmlns="http://www.w3.org/2000/svg"
   xmlns:sodipodi="http://sodipodi.sourceforge.net/DTD/sodipodi-0.dtd"
   xmlns:inkscape="http://www.inkscape.org/namespaces/inkscape"
   width="200"
   height="200"
   version="1.1"
   id="svg4"
   sodipodi:docname="drooling-mouth.svg"
   inkscape:version="0.92.2 5c3e80d, 2017-08-06">
  <metadata
     id="metadata10">
    <rdf:RDF>
      <cc:Work
         rdf:about="">
        <dc:format>image/svg+xml</dc:format>
        <dc:type
           rdf:resource="http://purl.org/dc/dcmitype/StillImage" />
        <dc:title />
        <cc:license
           rdf:resource="GPLv3 + FE" />
        <dc:creator>
          <cc:Agent>
            <dc:title>Zach DeCook</dc:title>
          </cc:Agent>
        </dc:creator>
      </cc:Work>
    </rdf:RDF>
  </metadata>
  <defs
     id="defs8" />
  <sodipodi:namedview
     pagecolor="#ffffff"
     bordercolor="#666666"
     borderopacity="1"
     objecttolerance="10"
     gridtolerance="10"
     guidetolerance="10"
     inkscape:pageopacity="0"
     inkscape:pageshadow="2"
     inkscape:window-width="1432"
     inkscape:window-height="936"
     id="namedview6"
     showgrid="false"
     inkscape:zoom="2.36"
     inkscape:cx="63.628222"
     inkscape:cy="64.678694"
     inkscape:window-x="215"
     inkscape:window-y="55"
     inkscape:window-maximized="0"
     inkscape:current-layer="svg4" />
  <path
     style="fill:#ffffff;fill-rule:evenodd;stroke:#000000;stroke-width:5;stroke-linecap:butt;stroke-linejoin:round;stroke-miterlimit:4;stroke-dasharray:none;stroke-opacity:1"
     d="m 158,150 c -0.40507,-12.22771 -15.69819,-22.38014 -58,-22 -42.30182,0.38014 -57.615319,11.15663 -58,22 -0.384681,10.84337 41.227908,8.51363 58.84742,8.52538 C 118.64623,158.53725 158.40507,162.22771 158,150 Z"
     id="path2"
     inkscape:connector-curvature="0"
     sodipodi:nodetypes="zzzsz" />
  <path
     sodipodi:nodetypes="csscccscc"
     inkscape:connector-curvature="0"
     id="path27"
     d="m 126.05932,157.74576 -44.016948,0.81356 c -4.768387,0.0881 20.464858,1.29716 20.464858,1.29716 4.29259,2.16693 0.10077,18.52678 12.38563,19.32371 9.10561,-1.32642 3.83254,-20.5247 11.16646,-21.43443 11.42773,1.06055 -0.54188,30.88413 13.55928,34.33894 9.82201,-1.79975 8.55138,-31.34801 11.61273,-34.50467 l 0.80549,-0.83057 z"
     style="fill:#9fffff;fill-opacity:1;fill-rule:evenodd;stroke:#0000ff;stroke-width:5;stroke-linecap:butt;stroke-linejoin:round;stroke-miterlimit:4;stroke-dasharray:none;stroke-opacity:1" />
</svg>
